23

13 5
2
h 2 1 s
t 6 1 e
19 4

17 10
2
f 7 7 e
h 13 1 s
6 5

20 6
7
h 16 2 e
h 0 1 n
t 0 2 w
r 12 1 e
r 14 2 s
r 2 1 s
f 7 2 w
20 2

15 14
6
t 5 6 w
h 1 1 w
t 4 8 e
f 3 2 w
t 9 10 n
t 13 13 n
20 4

16 15
3
t 3 3 w
r 7 6 n
t 12 7 w
19 5

11 12
6
t 5 3 w
t 9 7 n
h 10 2 e
h 1 5 e
r 7 11 e
r 10 1 s
12 5

16 6
7
h 9 2 n
h 2 0 s
f 10 3 s
t 10 4 e
t 2 4 e
h 8 2 e
r 7 2 e
16 3

4 16
7
t 3 13 e
f 1 2 s
r 0 1 e
r 1 3 e
t 2 7 e
f 0 6 e
t 2 11 e
18 4

8 8
3
f 4 6 w
r 5 2 n
h 6 7 n
4 5

12 6
8
h 4 5 w
h 9 1 w
r 2 1 w
r 7 0 w
f 9 3 n
r 8 5 n
t 6 2 e
t 9 5 w
20 3

14 1
7
r 12 0 e
f 9 0 e
r 13 0 n
f 11 0 e
h 0 0 n
f 7 0 e
r 1 0 n
17 5

19 13
7
f 17 9 e
r 13 7 s
h 7 3 e
f 18 10 n
t 3 9 n
r 13 9 e
h 11 9 w
19 1

2 16
5
f 1 12 n
t 1 0 n
t 1 14 n
h 1 2 s
r 0 11 e
4 2

5 11
10
h 3 5 s
t 2 1 w
t 3 6 s
h 4 10 n
r 0 9 s
f 3 4 e
r 0 10 s
h 1 0 w
f 4 7 n
r 3 3 s
5 4

7 4
6
r 4 0 w
f 6 0 w
t 6 2 e
f 1 1 e
f 2 1 n
t 1 3 s
20 1

18 12
1
r 6 8 s
11 3

13 10
5
f 1 5 e
h 5 0 n
f 6 2 e
f 4 9 w
f 12 1 s
15 3

11 16
10
t 1 3 s
t 1 4 s
t 0 3 w
t 5 6 w
h 1 2 s
h 3 14 w
f 5 0 e
r 1 1 w
f 8 0 e
h 0 13 s
13 5

20 6
4
t 3 5 s
t 10 2 e
t 11 0 s
f 13 0 e
11 3

14 18
8
t 10 2 w
t 9 17 n
h 2 4 n
h 10 10 s
t 3 13 s
f 7 11 n
h 1 2 w
t 5 0 e
3 1

3 2
4
f 0 0 w
t 1 1 w
h 2 1 e
f 0 1 n
7 5

1 15
1
r 0 9 w
16 5

1 17
4
f 0 0 s
h 0 12 w
h 0 2 e
r 0 8 w
14 1
