*** Darwin 18x9 ***
Turn = 0.
  012345678
0 .........
1 .........
2 ...r.....
3 ......h..
4 .........
5 .........
6 .........
7 .h.h.....
8 .........
9 .........
0 .........
1 .........
2 .........
3 .....t...
4 .........
5 t.......r
6 .........
7 ....r....

*** Darwin 24x18 ***
Turn = 0.
  012345678901234567
0 ..................
1 ..................
2 ..................
3 ...t..............
4 ..................
5 ..................
6 ..................
7 ..................
8 ..................
9 ..................
0 ..................
1 ..................
2 ..................
3 ..................
4 ..................
5 ..................
6 ..................
7 ..................
8 ..................
9 ..................
0 ..................
1 ..................
2 ..................
3 ..................

Turn = 30.
  012345678901234567
0 ..................
1 ..................
2 ..................
3 ...t..............
4 ..................
5 ..................
6 ..................
7 ..................
8 ..................
9 ..................
0 ..................
1 ..................
2 ..................
3 ..................
4 ..................
5 ..................
6 ..................
7 ..................
8 ..................
9 ..................
0 ..................
1 ..................
2 ..................
3 ..................

Turn = 60.
  012345678901234567
0 ..................
1 ..................
2 ..................
3 ...t..............
4 ..................
5 ..................
6 ..................
7 ..................
8 ..................
9 ..................
0 ..................
1 ..................
2 ..................
3 ..................
4 ..................
5 ..................
6 ..................
7 ..................
8 ..................
9 ..................
0 ..................
1 ..................
2 ..................
3 ..................

Turn = 90.
  012345678901234567
0 ..................
1 ..................
2 ..................
3 ...t..............
4 ..................
5 ..................
6 ..................
7 ..................
8 ..................
9 ..................
0 ..................
1 ..................
2 ..................
3 ..................
4 ..................
5 ..................
6 ..................
7 ..................
8 ..................
9 ..................
0 ..................
1 ..................
2 ..................
3 ..................

Turn = 120.
  012345678901234567
0 ..................
1 ..................
2 ..................
3 ...t..............
4 ..................
5 ..................
6 ..................
7 ..................
8 ..................
9 ..................
0 ..................
1 ..................
2 ..................
3 ..................
4 ..................
5 ..................
6 ..................
7 ..................
8 ..................
9 ..................
0 ..................
1 ..................
2 ..................
3 ..................

Turn = 150.
  012345678901234567
0 ..................
1 ..................
2 ..................
3 ...t..............
4 ..................
5 ..................
6 ..................
7 ..................
8 ..................
9 ..................
0 ..................
1 ..................
2 ..................
3 ..................
4 ..................
5 ..................
6 ..................
7 ..................
8 ..................
9 ..................
0 ..................
1 ..................
2 ..................
3 ..................

*** Darwin 29x17 ***
Turn = 0.
  01234567890123456
0 .................
1 .................
2 ........t..h.....
3 .....h...........
4 .................
5 .................
6 .................
7 .................
8 .................
9 ...............t.
0 .................
1 .................
2 ............r..f.
3 .............r...
4 r................
5 .................
6 .................
7 .................
8 ...........r.....
9 .................
0 .................
1 .................
2 ...f.....t.......
3 .................
4 ..............t..
5 .................
6 .................
7 .r.......f.......
8 .....h.r.........

Turn = 32.
  01234567890123456
0 ....r........r...
1 .................
2 r.......t.......h
3 .................
4 .................
5 .................
6 .......r.........
7 .......r.........
8 .................
9 .......r.......t.
0 .................
1 .................
2 ...............f.
3 .................
4 .................
5 .................
6 .................
7 .................
8 .................
9 .................
0 .................
1 .................
2 ...f.....t.......
3 .................
4 ..............t..
5 .................
6 .................
7 .........f.......
8 .r..............h

*** Darwin 17x18 ***
Turn = 0.
  012345678901234567
0 ..................
1 ..................
2 ............r.....
3 ..................
4 ...f......f.......
5 ..................
6 ..................
7 ..................
8 ..................
9 ..................
0 ..................
1 ..................
2 ..................
3 ..................
4 ..................
5 ..................
6 ..................

*** Darwin 16x1 ***
Turn = 0.
  0
0 .
1 f
2 h
3 r
4 .
5 .
6 .
7 f
8 .
9 .
0 .
1 .
2 r
3 t
4 .
5 .

Turn = 2.
  0
0 .
1 f
2 r
3 r
4 .
5 .
6 .
7 f
8 .
9 .
0 .
1 .
2 r
3 .
4 r
5 .

Turn = 4.
  0
0 .
1 f
2 r
3 .
4 r
5 .
6 .
7 f
8 .
9 .
0 .
1 .
2 .
3 .
4 r
5 r

Turn = 6.
  0
0 .
1 f
2 .
3 r
4 .
5 .
6 r
7 f
8 .
9 .
0 .
1 .
2 .
3 .
4 r
5 r

Turn = 8.
  0
0 .
1 f
2 .
3 .
4 .
5 r
6 r
7 r
8 .
9 .
0 .
1 .
2 .
3 .
4 r
5 r

Turn = 10.
  0
0 .
1 f
2 .
3 .
4 .
5 r
6 r
7 .
8 r
9 .
0 .
1 .
2 .
3 .
4 r
5 r

Turn = 12.
  0
0 .
1 f
2 .
3 r
4 .
5 .
6 .
7 r
8 .
9 .
0 r
1 .
2 .
3 .
4 r
5 r

Turn = 14.
  0
0 .
1 r
2 r
3 .
4 .
5 .
6 .
7 .
8 .
9 r
0 .
1 .
2 r
3 .
4 r
5 r

Turn = 16.
  0
0 .
1 r
2 r
3 .
4 .
5 .
6 .
7 .
8 .
9 .
0 .
1 r
2 .
3 r
4 r
5 r

Turn = 18.
  0
0 .
1 r
2 .
3 .
4 r
5 .
6 .
7 .
8 .
9 .
0 .
1 .
2 r
3 r
4 r
5 r

Turn = 20.
  0
0 .
1 .
2 .
3 r
4 .
5 .
6 r
7 .
8 .
9 .
0 .
1 .
2 r
3 r
4 r
5 r

Turn = 22.
  0
0 .
1 .
2 .
3 .
4 .
5 r
6 .
7 .
8 r
9 .
0 .
1 r
2 .
3 r
4 r
5 r

Turn = 24.
  0
0 .
1 .
2 .
3 .
4 .
5 .
6 .
7 r
8 .
9 r
0 r
1 .
2 .
3 r
4 r
5 r

Turn = 26.
  0
0 .
1 .
2 .
3 .
4 .
5 .
6 .
7 .
8 r
9 r
0 .
1 r
2 r
3 .
4 r
5 r

Turn = 28.
  0
0 .
1 .
2 .
3 .
4 .
5 .
6 .
7 .
8 r
9 .
0 r
1 r
2 r
3 r
4 .
5 r

Turn = 30.
  0
0 .
1 .
2 .
3 .
4 .
5 .
6 .
7 r
8 .
9 .
0 r
1 r
2 r
3 .
4 r
5 r

Turn = 32.
  0
0 .
1 .
2 .
3 .
4 .
5 r
6 .
7 .
8 r
9 r
0 .
1 .
2 .
3 r
4 r
5 r

Turn = 34.
  0
0 .
1 .
2 .
3 r
4 .
5 .
6 r
7 r
8 .
9 .
0 .
1 .
2 .
3 r
4 r
5 r

Turn = 36.
  0
0 .
1 r
2 .
3 .
4 r
5 r
6 .
7 .
8 .
9 .
0 .
1 .
2 .
3 r
4 r
5 r

Turn = 38.
  0
0 r
1 .
2 r
3 r
4 .
5 .
6 .
7 .
8 .
9 .
0 .
1 .
2 r
3 .
4 r
5 r

Turn = 40.
  0
0 r
1 r
2 r
3 .
4 .
5 .
6 .
7 .
8 .
9 .
0 r
1 .
2 r
3 .
4 .
5 r

Turn = 42.
  0
0 r
1 r
2 r
3 .
4 .
5 .
6 .
7 .
8 r
9 .
0 r
1 .
2 .
3 .
4 .
5 r

*** Darwin 11x4 ***
Turn = 0.
  0123
0 .f..
1 ..f.
2 ..h.
3 .rh.
4 ...t
5 t...
6 ...h
7 r.rr
8 .f.t
9 ..rf
0 ....

*** Darwin 10x14 ***
Turn = 0.
  01234567890123
0 ..............
1 ...f..........
2 ..............
3 ....f...t.....
4 ..r...........
5 r.............
6 ..............
7 ...........h..
8 ..............
9 .........f....

*** Darwin 8x13 ***
Turn = 0.
  0123456789012
0 .............
1 .............
2 .............
3 .............
4 .............
5 ..........t..
6 .............
7 .............

*** Darwin 4x12 ***
Turn = 0.
  012345678901
0 r...h...ht..
1 ...t..h....r
2 ...f...h....
3 h...f.r.hf..

*** Darwin 8x4 ***
Turn = 0.
  0123
0 ...t
1 ....
2 .r.r
3 ....
4 .t..
5 ....
6 ....
7 tr.r

Turn = 101.
  0123
0 r...
1 .r..
2 ....
3 ....
4 ..rr
5 ...r
6 ...r
7 ...r

*** Darwin 13x10 ***
Turn = 0.
  0123456789
0 .h.....r..
1 .r........
2 ..........
3 ..........
4 .r........
5 ..........
6 .h........
7 ..........
8 ......r...
9 ....r.h...
0 ..........
1 ..........
2 ..........

Turn = 13.
  0123456789
0 .......r..
1 ..........
2 ..........
3 ..........
4 ..........
5 .........r
6 h...r.....
7 ..........
8 ..........
9 h...r.....
0 ..........
1 ..........
2 ...r.r....

*** Darwin 16x5 ***
Turn = 0.
  01234
0 .h.f.
1 .....
2 .....
3 .rh..
4 .....
5 ....f
6 ..r.f
7 .....
8 .....
9 .....
0 .....
1 h..f.
2 ...tf
3 .....
4 .f...
5 ....t

Turn = 70.
  01234
0 r.r..
1 r....
2 r..r.
3 ...r.
4 .....
5 .....
6 ...r.
7 .....
8 ....r
9 ....r
0 ....r
1 r....
2 .....
3 .....
4 ..r..
5 .r...

Turn = 140.
  01234
0 ....r
1 ...r.
2 .....
3 .....
4 ..r..
5 r....
6 .r...
7 ...r.
8 ..r..
9 ..r.r
0 r....
1 .....
2 .....
3 .r...
4 r....
5 ...r.

*** Darwin 4x7 ***
Turn = 0.
  0123456
0 fr...rt
1 .......
2 f..tf..
3 rrh...f

*** Darwin 6x17 ***
Turn = 0.
  01234567890123456
0 ..f...r..........
1 .........t.......
2 f.....r.....f....
3 .............f...
4 ..ff......h.h...f
5 .................

*** Darwin 10x19 ***
Turn = 0.
  0123456789012345678
0 .........r.......t.
1 ...............t...
2 .......h..f.......f
3 ...................
4 ......f......f.....
5 ............t......
6 ....t..............
7 .....r.............
8 ....f........t.....
9 ..............h....

*** Darwin 15x16 ***
Turn = 0.
  0123456789012345
0 ..........h.....
1 ................
2 ..........h.....
3 ................
4 ..f...t.....h...
5 ....h..........h
6 ................
7 ..........h.....
8 ........f.......
9 ..........t.....
0 h...............
1 ................
2 .......f........
3 ................
4 ................

Turn = 16.
  0123456789012345
0 ....h...........
1 ................
2 ................
3 ................
4 ..f...t........h
5 ................
6 ..........t.....
7 ..........t.....
8 ........f.t.....
9 ..........t.....
0 ...............h
1 ................
2 .......f........
3 ................
4 ...............h

Turn = 32.
  0123456789012345
0 ....h...........
1 ................
2 ................
3 ................
4 ..f...t........h
5 ................
6 ..........t.....
7 ..........t.....
8 ........f.t.....
9 ..........t.....
0 ...............h
1 ................
2 .......f........
3 ................
4 ...............h

Turn = 48.
  0123456789012345
0 ....h...........
1 ................
2 ................
3 ................
4 ..f...t........h
5 ................
6 ..........t.....
7 ..........t.....
8 ........f.t.....
9 ..........t.....
0 ...............h
1 ................
2 .......f........
3 ................
4 ...............h

*** Darwin 13x16 ***
Turn = 0.
  0123456789012345
0 ................
1 ...........ftr..
2 ................
3 ..r.............
4 ................
5 .f..........h...
6 ....r...........
7 ......f...f.....
8 ....t..h.t.....f
9 .....h........h.
0 .....f..........
1 ....h...........
2 .....f..........

*** Darwin 5x2 ***
Turn = 0.
  01
0 ..
1 .t
2 ..
3 f.
4 ht

Turn = 33.
  01
0 ..
1 .t
2 ..
3 t.
4 tt

Turn = 66.
  01
0 ..
1 .t
2 ..
3 t.
4 tt

Turn = 99.
  01
0 ..
1 .t
2 ..
3 t.
4 tt

*** Darwin 17x8 ***
Turn = 0.
  01234567
0 ........
1 ........
2 ........
3 ........
4 h.......
5 ........
6 ........
7 ....f...
8 ........
9 ........
0 ........
1 ........
2 ..f.....
3 ........
4 ..r.....
5 .....f..
6 ........

*** Darwin 24x1 ***
Turn = 0.
  0
0 .
1 .
2 t
3 t
4 .
5 t
6 .
7 h
8 .
9 .
0 .
1 .
2 t
3 h
4 .
5 .
6 .
7 h
8 .
9 f
0 .
1 .
2 .
3 .

*** Darwin 26x2 ***
Turn = 0.
  01
0 ..
1 .t
2 t.
3 ..
4 ..
5 .f
6 ..
7 .h
8 ..
9 ..
0 ..
1 ..
2 ..
3 ..
4 ..
5 ..
6 ..
7 .r
8 ..
9 ..
0 .r
1 ..
2 ..
3 ..
4 t.
5 f.

Turn = 15.
  01
0 ..
1 .t
2 t.
3 ..
4 r.
5 .f
6 .h
7 ..
8 ..
9 ..
0 ..
1 ..
2 ..
3 ..
4 ..
5 ..
6 ..
7 ..
8 ..
9 ..
0 ..
1 ..
2 ..
3 ..
4 .r
5 rr

Turn = 30.
  01
0 .r
1 ..
2 ..
3 r.
4 .r
5 .f
6 .h
7 ..
8 ..
9 ..
0 .r
1 r.
2 r.
3 ..
4 ..
5 ..
6 ..
7 ..
8 ..
9 ..
0 ..
1 ..
2 ..
3 ..
4 ..
5 ..
